﻿[
  "caga",
  "cagar*",
  "chingader*",
  "chingo*",
  "chingues",
  "culo",
  "culero",
  "culera",
  "culero*",
  "culera*",
  "emputad*",
  "estúpido",
  "estupido",
  "idiot*",
  "imbecil*",
  "imbécil*",
  "mamada",
  "mamada*",
  "mamaste",
  "mamón",
  "mamon",
  "madrazo",
  "mierd*",
  "pedo",
  "pedote",
  "peda",
  "pendej*",
  "pinche",
  "puto",
  "puto*",
  "puta",
  "puta*",
  "puñetas",
  "putiza",
  "verga",
  "verga*"
]